{
        "rotation":[0,0,3],
        "faces":[
                {
                        "textureid":12,
                        "cull":"left",
                        "vertices":[
                                [0.0, 0.0, 0.0],
                                [0.0, 0.0, 1.0],
                                [0.0, 1.0, 0.0],
                                [0.0, 1.0, 0.0],
                                [0.0, 0.0, 1.0],
                                [0.0, 1.0, 1.0]
                        ]
                }, {
                        "textureid":12,
                        "cull":"right",
                        "vertices":[
                                [1.0, 0.0, 1.0],
                                [1.0, 0.0, 0.0],
                                [1.0, 1.0, 1.0],
                                [1.0, 1.0, 1.0],
                                [1.0, 0.0, 0.0],
                                [1.0, 1.0, 0.0]
                        ]
                }, {
                        "textureid":4,
                        "cull":"down",
                        "vertices":[
                                [0.0, 0.0, 0.0],
                                [1.0, 0.0, 0.0],
                                [0.0, 0.0, 1.0],
                                [0.0, 0.0, 1.0],
                                [1.0, 0.0, 0.0],
                                [1.0, 0.0, 1.0]
                        ]
                }, {
                        "textureid":4,
                        "cull":"up",
                        "vertices":[
                                [1.0, 1.0, 1.0],
                                [1.0, 1.0, 0.0],
                                [0.0, 1.0, 1.0],
                                [0.0, 1.0, 1.0],
                                [1.0, 1.0, 0.0],
                                [0.0, 1.0, 0.0]
                        ]
                }, {
                        "textureid":12,
                        "cull":"front",
                        "vertices":[
                                [1.0, 0.0, 0.0],
                                [0.0, 0.0, 0.0],
                                [1.0, 1.0, 0.0],
                                [1.0, 1.0, 0.0],
                                [0.0, 0.0, 0.0],
                                [0.0, 1.0, 0.0]
                        ]
                }, {
                        "textureid":12,
                        "cull":"back",
                        "vertices":[
                                [0.0, 0.0, 1.0],
                                [1.0, 0.0, 1.0],
                                [0.0, 1.0, 1.0],
                                [0.0, 1.0, 1.0],
                                [1.0, 0.0, 1.0],
                                [1.0, 1.0, 1.0]
                        ]
                }
        ]
}
