{
        "rotation":[0,1,0],
        "faces":[
                {
                        "textureid":32,
                        "cull":"left",
                        "vertices":[
                                [0.0, 0.0, 0.0],
                                [0.0, 0.0, 1.0],
                                [0.0, 1.0, 0.0625],
                                [0.0, 1.0, 0.0625],
                                [0.0, 0.0, 1.0],
                                [0.0, 1.0, 0.9375]
                        ]
                }, {
                        "textureid":32,
                        "cull":"right",
                        "vertices":[
                                [1.0, 0.0, 1.0],
                                [1.0, 0.0, 0.0],
                                [1.0, 1.0, 0.9375],
                                [1.0, 1.0, 0.9375],
                                [1.0, 0.0, 0.0],
                                [1.0, 1.0, 0.0625]
                        ]
                }, {
                        "textureid":34,
                        "cull":"down",
                        "vertices":[
                                [0.0, 0.0, 0.0],
                                [1.0, 0.0, 0.0],
                                [0.0, 0.0, 1.0],
                                [0.0, 0.0, 1.0],
                                [1.0, 0.0, 0.0],
                                [1.0, 0.0, 1.0]
                        ]
                }, {
                        "textureid":33,
                        "cull":"up",
                        "vertices":[
                                [1.0, 1.0, 0.9375],
                                [1.0, 1.0, 0.0625],
                                [0.0, 1.0, 0.9375],
                                [0.0, 1.0, 0.9375],
                                [1.0, 1.0, 0.0625],
                                [0.0, 1.0, 0.0625]
                        ]
                }, {
                        "textureid":35,
                        "vertices":[
                                [1.0, 0.0, 0.0],
                                [0.0, 0.0, 0.0],
                                [1.0, 1.0, 0.0625],
                                [1.0, 1.0, 0.0625],
                                [0.0, 0.0, 0.0],
                                [0.0, 1.0, 0.0625],

                                [0.0, 0.0, 1.0],
                                [1.0, 0.0, 1.0],
                                [0.0, 1.0, 0.9375],
                                [0.0, 1.0, 0.9375],
                                [1.0, 0.0, 1.0],
                                [1.0, 1.0, 0.9375],

                                [1.0, 0.0, 0.75],
                                [0.0, 0.0, 0.75],
                                [1.0, 1.0, 0.75],
                                [1.0, 1.0, 0.75],
                                [0.0, 0.0, 0.75],
                                [0.0, 1.0, 0.75],

                                [0.0, 0.0, 0.25],
                                [1.0, 0.0, 0.25],
                                [0.0, 1.0, 0.25],
                                [0.0, 1.0, 0.25],
                                [1.0, 0.0, 0.25],
                                [1.0, 1.0, 0.25]
                        ]
                }
        ]
}
