{
        "music":"",
        "size":[8,8,17],
        "data":[
                1,1,1,1,1,1,7,1,
                1,1,1,1,1,1,7,1,
                1,1,1,1,1,1,7,1,
                1,1,1,1,1,1,7,1,
                1,1,1,1,7,7,7,1,
                1,1,1,1,7,1,7,1,
                1,1,1,1,7,7,7,1,
                1,1,1,1,1,1,1,1,

                1,1,1,1,1,1,6,1,
                0,0,0,0,0,0,0,0,
                0,0,0,0,0,0,0,0,
                0,0,0,0,0,0,0,0,
                0,0,0,0,0,0,0,0,
                0,0,0,0,0,0,0,0,
                0,0,0,0,58,58,58,0,
                0,0,0,0,0,0,0,0,

                1,1,1,1,1,1,1,1,
                0,0,0,3,0,0,0,0,
                0,0,0,3,0,0,0,0,
                0,0,0,0,0,0,0,0,
                0,0,0,0,0,0,0,0,
                0,0,0,0,0,0,0,0,
                0,0,0,0,0,0,0,0,
                0,0,0,0,0,0,0,0,

                1,1,1,1,1,1,1,1,
                0,0,0,3,0,0,0,0,
                0,0,0,0,0,0,0,0,
                0,0,0,0,0,0,0,0,
                0,0,0,0,0,0,0,0,
                0,0,0,0,0,0,0,0,
                0,0,0,0,0,0,0,0,
                0,0,0,0,0,0,0,0,

                1,1,1,1,1,1,1,1,
                0,0,0,2,0,0,0,0,
                0,0,0,0,0,0,0,0,
                0,0,0,0,0,0,0,0,
                0,0,0,0,0,0,0,0,
                0,0,0,0,0,0,0,0,
                0,0,0,0,0,0,0,0,
                0,0,0,0,0,0,0,0,

                1,6,7,7,7,7,6,1,
                0,0,0,57,57,0,0,0,
                0,0,0,0,0,0,0,0,
                0,0,0,0,0,0,0,0,
                0,0,0,0,0,0,0,0,
                0,0,0,0,0,0,0,0,
                0,0,0,0,0,0,0,0,
                0,0,0,0,0,0,0,0,

                1,1,1,1,1,1,1,1,
                0,0,0,0,0,0,0,0,
                0,0,0,0,0,0,0,0,
                0,0,0,0,0,0,0,0,
                0,0,0,0,0,0,0,0,
                0,0,0,0,0,0,0,0,
                0,0,0,0,0,0,0,0,
                0,0,0,0,0,0,0,0,

                1,1,1,1,1,1,1,1,
                0,0,0,0,0,0,0,0,
                0,0,0,0,0,0,0,0,
                0,0,0,0,0,0,0,0,
                0,0,0,0,0,0,0,0,
                0,0,0,0,0,0,0,0,
                0,0,0,0,0,0,0,0,
                0,0,0,0,0,0,0,0,

                1,60,7,7,7,7,60,1,
                0,0,0,0,0,0,0,0,
                0,0,0,0,0,0,0,0,
                0,0,0,0,0,0,0,0,
                0,0,0,0,0,0,0,0,
                0,0,0,0,0,0,0,0,
                0,0,0,0,0,0,0,0,
                0,0,0,0,0,0,0,0,

                1,1,1,1,1,1,1,1,
                0,0,0,0,0,0,0,0,
                0,0,0,0,0,0,0,0,
                0,0,0,0,0,0,0,0,
                0,0,0,0,0,0,0,0,
                0,0,0,0,0,0,0,0,
                0,0,0,0,0,0,0,0,
                0,0,0,0,0,0,0,0,

                1,1,1,1,1,1,1,1,
                0,0,0,0,0,0,0,0,
                0,0,0,0,0,0,0,0,
                0,0,0,0,0,0,0,0,
                0,0,0,0,0,0,0,0,
                0,0,0,0,0,0,0,0,
                0,0,0,0,0,0,0,0,
                0,0,0,0,0,0,0,0,

                1,6,62,7,7,61,6,1,
                0,0,0,0,0,0,0,0,
                0,0,0,0,0,0,0,0,
                0,0,0,0,0,0,0,0,
                0,0,0,0,0,0,0,0,
                0,0,0,0,0,0,0,0,
                0,0,0,0,0,0,0,0,
                0,0,0,0,0,0,0,0,

                1,1,1,1,1,1,1,1,
                0,0,0,0,0,0,0,0,
                0,0,0,0,0,0,0,0,
                0,0,0,0,0,0,0,0,
                0,0,0,0,0,0,0,0,
                0,0,0,0,0,0,0,0,
                0,0,0,0,0,0,0,0,
                0,0,0,0,0,0,0,0,

                1,1,1,1,1,1,1,1,
                0,0,0,0,0,0,0,0,
                0,0,0,0,0,0,0,0,
                0,0,0,0,0,0,0,0,
                0,0,0,0,0,0,0,0,
                0,0,0,0,0,0,0,0,
                0,0,0,0,0,0,0,0,
                0,0,0,0,0,0,0,0,

                1,6,68,7,7,67,6,1,
                0,0,0,0,0,0,0,0,
                0,0,0,0,0,0,0,0,
                0,0,0,0,0,0,0,0,
                0,0,0,0,0,0,0,0,
                0,0,0,0,0,0,0,0,
                0,0,0,0,0,0,0,0,
                0,0,0,0,0,0,0,0,

                1,1,1,1,1,1,1,1,
                0,0,0,0,0,0,0,0,
                0,0,0,0,0,0,0,0,
                0,0,0,0,0,0,0,0,
                0,0,0,0,0,0,0,0,
                0,0,0,0,0,0,0,0,
                0,0,0,0,0,0,0,0,
                0,0,0,0,0,0,0,0,

                1,1,1,1,1,1,1,1,
                0,0,0,0,0,0,0,0,
                0,0,0,0,0,0,0,0,
                0,0,0,0,0,0,0,0,
                0,0,0,0,0,0,0,0,
                0,0,0,0,0,0,0,0,
                0,0,0,0,0,0,0,0,
                0,0,0,0,0,0,0,0
        ]
}
