{
        "music":"",
        "size":[8,2,8],
        "data":[
                1,1,0,0,0,0,1,1,
                2,0,0,0,0,0,0,0,

                1,1,0,0,0,0,1,1,
                0,0,0,0,0,0,0,0,

                1,1,0,0,0,0,1,1,
                0,0,0,0,0,0,0,0,

                1,1,0,0,0,0,1,1,
                0,0,0,0,0,0,0,0,

                1,1,0,0,0,0,1,1,
                3,0,0,0,0,0,0,0,

                1,1,0,0,0,0,1,1,
                0,0,0,0,0,0,0,0,

                6,7,0,0,0,55,7,6,
                0,0,0,0,0,0,0,1,

                1,1,0,0,0,0,1,1,
                0,0,0,0,0,0,0,0
        ]
}
