{
        "music":"music/track2.ogg",
        "size":[9,2,35],
        "data":[
                1,1,1,1,1,1,1,1,1,
                0,0,0,0,0,0,0,0,0,

                1,1,1,1,1,1,1,1,1,
                0,0,0,0,0,0,0,0,0,

                1,1,1,1,1,1,45,1,1,
                0,0,0,0,0,0,0,0,0,

                1,1,1,1,1,1,1,1,1,
                0,0,0,0,0,0,0,0,0,

                1,1,1,1,1,1,1,1,1,
                0,0,0,0,0,0,0,0,0,

                1,7,7,7,7,7,7,7,1,
                1,57,57,57,57,57,57,57,1,

                1,1,1,1,7,1,1,1,1,
                0,0,0,0,0,0,0,0,0,

                1,1,1,1,7,1,1,1,1,
                0,0,0,0,0,0,0,0,0,

                1,6,7,7,43,7,7,6,1,
                0,0,0,0,0,0,0,0,0,

                1,1,1,1,1,1,1,1,1,
                0,0,0,0,0,0,0,0,0,

                1,7,7,7,7,7,7,7,1,
                1,57,57,57,57,57,57,57,1,

                1,1,1,1,7,1,1,1,1,
                0,0,0,0,0,0,0,0,0,

                1,1,1,1,7,1,1,1,1,
                0,0,0,0,0,0,0,0,0,

                1,6,7,7,37,7,7,6,1,
                0,0,0,0,0,0,0,0,0,

                1,1,1,1,1,1,1,1,1,
                0,0,0,0,0,0,0,0,0,

                1,7,7,7,7,7,7,7,1,
                1,57,57,57,57,57,57,57,1,

                1,1,1,1,7,1,1,1,1,
                0,0,0,0,0,0,0,0,0,

                1,1,1,1,7,1,1,1,1,
                0,0,0,0,0,0,0,0,0,

                1,6,7,7,31,7,7,6,1,
                0,0,0,0,0,0,0,0,0,

                1,1,1,1,1,1,1,1,1,
                0,0,0,0,0,0,0,0,0,

                1,7,7,7,7,7,7,7,1,
                1,57,57,57,57,57,57,57,1,

                1,1,1,1,7,1,1,1,1,
                0,0,0,0,0,0,0,0,0,

                1,1,1,1,7,1,1,1,1,
                0,0,0,0,0,0,0,0,0,

                1,6,7,7,25,7,7,6,1,
                0,0,0,0,0,0,0,0,0,

                1,1,1,1,1,1,1,1,1,
                0,0,0,0,0,0,0,0,0,

                1,7,7,7,7,7,7,7,1,
                1,57,57,57,57,57,57,57,1,

                1,1,1,1,7,1,1,1,1,
                0,0,0,0,0,0,0,0,0,

                1,1,1,1,7,1,1,1,1,
                0,0,0,0,0,0,0,0,0,

                1,6,7,7,19,7,7,6,1,
                0,0,0,0,0,0,0,3,0,

                1,1,1,1,1,1,1,1,1,
                0,0,0,0,0,0,0,0,0,

                1,7,7,7,7,7,7,7,1,
                1,57,57,57,57,57,57,57,1,

                1,1,1,1,7,1,1,1,1,
                0,0,0,0,0,0,0,0,0,

                1,1,1,1,7,1,1,1,1,
                0,0,0,0,0,0,0,0,0,

                1,6,7,7,13,7,7,6,1,
                0,0,0,2,0,0,0,0,0,

                1,1,1,1,1,1,1,1,1,
                0,0,0,0,0,0,0,0,0
        ]
}
